﻿{
  "version": "1.0.0-*",
  "description": "caDay1 Console Application",
  "authors": [ "Bootcamp" ],
  "tags": [ "" ],
  "projectUrl": "",
  "licenseUrl": "",

  "dependencies": {
  },

  "commands": {
    "caDay1": "caDay1"
  },

  "frameworks": {
    "dnx451": { },
    "dnxcore50": {
      "dependencies": {
        "System.Collections": "4.0.10-beta-23019",
        "System.Console": "4.0.0-beta-23019",
        "System.Linq": "4.0.0-beta-23019",
        "System.Threading": "4.0.10-beta-23019",
        "Microsoft.CSharp": "4.0.0-beta-23019"
      }
    }
  }
}
